<?xml version="1.0" encoding="utf-8"?>
<!-- Generator: Adobe Illustrator 19.1.0, SVG Export Plug-In . SVG Version: 6.00 Build 0)  -->
<!DOCTYPE svg PUBLIC "-//W3C//DTD SVG 1.1//EN" "http://www.w3.org/Graphics/SVG/1.1/DTD/svg11.dtd">
<svg version="1.1" id="Layer_1" xmlns="http://www.w3.org/2000/svg" xmlns:xlink="http://www.w3.org/1999/xlink" x="0px" y="0px"
	 viewBox="0 0 1000 1000" style="enable-background:new 0 0 1000 1000;" xml:space="preserve">
<style type="text/css">
	.st0{opacity:0.75;fill:#808080;}
	.st1{opacity:0.75;fill:#FFFF00;}
	.st2{opacity:0.75;fill:#FF8000;}
	.st3{opacity:0.75;fill:#00AAAA;}
	.st4{opacity:0.75;fill:#FF00FF;}
	.st5{opacity:0.75;fill:#0000FF;}
	.st6{opacity:0.75;fill:#00AA00;}
	.st7{opacity:0.75;fill:#FF0000;}
</style>
<g id="surface144">
	<g>
		<circle class="st0" cx="415" cy="927.6" r="3.4"/>
	</g>
	<g>
		<circle class="st0" cx="742.3" cy="862.6" r="6.8"/>
	</g>
	<g>
		<circle class="st0" cx="705.3" cy="807.3" r="5.1"/>
	</g>
	<g>
		<circle class="st1" cx="650" cy="770.3" r="5.1"/>
	</g>
	<g>
		<circle class="st0" cx="585" cy="757.5" r="3.4"/>
	</g>
	<g>
		<circle class="st2" cx="520" cy="770.3" r="6.8"/>
	</g>
	<g>
		<circle class="st3" cx="464.8" cy="807.3" r="6.8"/>
	</g>
	<g>
		<circle class="st4" cx="427.7" cy="862.6" r="6.8"/>
	</g>
	<g>
		<circle class="st0" cx="692.5" cy="742.3" r="5.1"/>
	</g>
	<g>
		<circle class="st1" cx="637.3" cy="705.3" r="5.1"/>
	</g>
	<g>
		<circle class="st0" cx="572.3" cy="692.5" r="6.8"/>
	</g>
	<g>
		<circle class="st2" cx="507.3" cy="705.3" r="3.4"/>
	</g>
	<g>
		<circle class="st3" cx="452" cy="742.3" r="3.4"/>
	</g>
	<g>
		<circle class="st4" cx="415" cy="797.6" r="3.4"/>
	</g>
	<g>
		<circle class="st1" cx="600.2" cy="650" r="3.4"/>
	</g>
	<g>
		<circle class="st0" cx="535.2" cy="637.3" r="5.1"/>
	</g>
	<g>
		<circle class="st2" cx="470.2" cy="650" r="5.1"/>
	</g>
	<g>
		<circle class="st3" cx="415" cy="687.1" r="5.1"/>
	</g>
	<g>
		<circle class="st4" cx="377.9" cy="742.3" r="5.1"/>
	</g>
	<g>
		<circle class="st1" cx="480" cy="600.2" r="5.1"/>
	</g>
	<g>
		<circle class="st2" cx="415" cy="613" r="5.1"/>
	</g>
	<g>
		<circle class="st3" cx="359.7" cy="650" r="5.1"/>
	</g>
	<g>
		<circle class="st4" cx="322.7" cy="705.3" r="5.1"/>
	</g>
	<g>
		<circle class="st2" cx="350" cy="600.2" r="6.8"/>
	</g>
	<g>
		<circle class="st3" cx="294.7" cy="637.3" r="6.8"/>
	</g>
	<g>
		<circle class="st4" cx="257.7" cy="692.5" r="6.8"/>
	</g>
	<g>
		<circle class="st5" cx="229.7" cy="650" r="3.4"/>
	</g>
	<g>
		<circle class="st6" cx="192.7" cy="705.3" r="3.4"/>
	</g>
	<g>
		<circle class="st7" cx="137.4" cy="742.3" r="3.4"/>
	</g>
	<g>
		<circle class="st5" cx="172.7" cy="565" r="5.1"/>
	</g>
	<g>
		<circle class="st7" cx="209.7" cy="620.3" r="5.1"/>
	</g>
	<g>
		<circle class="st7" cx="265" cy="657.3" r="3.4"/>
	</g>
	<g>
		<circle class="st0" cx="329.9" cy="670.1" r="5.1"/>
	</g>
	<g>
		<circle class="st2" cx="394.9" cy="657.3" r="5.1"/>
	</g>
	<g>
		<circle class="st3" cx="450.2" cy="620.3" r="5.1"/>
	</g>
	<g>
		<circle class="st4" cx="487.2" cy="565" r="5.1"/>
	</g>
	<g>
		<circle class="st5" cx="172.7" cy="435" r="5.1"/>
	</g>
	<g>
		<circle class="st6" cx="209.7" cy="379.7" r="5.1"/>
	</g>
	<g>
		<circle class="st7" cx="265" cy="342.7" r="5.1"/>
	</g>
	<g>
		<circle class="st1" cx="329.9" cy="329.9" r="5.1"/>
	</g>
	<g>
		<circle class="st6" cx="394.9" cy="342.7" r="6.8"/>
	</g>
	<g>
		<circle class="st5" cx="450.2" cy="379.7" r="3.4"/>
	</g>
	<g>
		<circle class="st6" cx="487.2" cy="435" r="5.1"/>
	</g>
	<g>
		<circle class="st5" cx="222.5" cy="685.2" r="6.8"/>
	</g>
	<g>
		<circle class="st5" cx="277.7" cy="722.3" r="5.1"/>
	</g>
	<g>
		<circle class="st1" cx="342.7" cy="735" r="5.1"/>
	</g>
	<g>
		<circle class="st7" cx="407.7" cy="722.3" r="5.1"/>
	</g>
	<g>
		<circle class="st6" cx="463" cy="685.2" r="5.1"/>
	</g>
	<g>
		<circle class="st5" cx="500" cy="630" r="5.1"/>
	</g>
	<g>
		<circle class="st4" cx="186" cy="500" r="5.1"/>
	</g>
	<g>
		<circle class="st3" cx="222.5" cy="444.7" r="5.1"/>
	</g>
	<g>
		<circle class="st2" cx="277.7" cy="407.7" r="5.1"/>
	</g>
	<g>
		<circle class="st0" cx="342.7" cy="394.9" r="5.1"/>
	</g>
	<g>
		<circle class="st6" cx="407.7" cy="407.7" r="3.4"/>
	</g>
	<g>
		<circle class="st6" cx="463" cy="444.7" r="5.1"/>
	</g>
	<g>
		<circle class="st7" cx="314.8" cy="777.5" r="5.1"/>
	</g>
	<g>
		<circle class="st1" cx="379.7" cy="790.3" r="3.4"/>
	</g>
	<g>
		<circle class="st7" cx="444.7" cy="777.5" r="6.8"/>
	</g>
	<g>
		<circle class="st6" cx="500" cy="740.5" r="6.8"/>
	</g>
	<g>
		<circle class="st5" cx="537" cy="685.2" r="6.8"/>
	</g>
	<g>
		<circle class="st4" cx="222.5" cy="555.3" r="3.4"/>
	</g>
	<g>
		<circle class="st3" cx="259.5" cy="500" r="3.4"/>
	</g>
	<g>
		<circle class="st2" cx="314.8" cy="463" r="3.4"/>
	</g>
	<g>
		<circle class="st0" cx="379.7" cy="450.2" r="6.8"/>
	</g>
	<g>
		<circle class="st7" cx="444.7" cy="463" r="6.8"/>
	</g>
	<g>
		<circle class="st1" cx="435" cy="827.3" r="6.8"/>
	</g>
	<g>
		<circle class="st7" cx="500" cy="814" r="3.4"/>
	</g>
	<g>
		<circle class="st6" cx="555.3" cy="777.5" r="3.4"/>
	</g>
	<g>
		<circle class="st5" cx="592.3" cy="722.3" r="3.4"/>
	</g>
	<g>
		<circle class="st4" cx="277.7" cy="592.3" r="6.8"/>
	</g>
	<g>
		<circle class="st3" cx="314.8" cy="537" r="6.8"/>
	</g>
	<g>
		<circle class="st2" cx="370" cy="500" r="6.8"/>
	</g>
	<g>
		<circle class="st0" cx="435" cy="487.2" r="3.4"/>
	</g>
	<g>
		<circle class="st2" cx="565" cy="827.3" r="5.1"/>
	</g>
	<g>
		<circle class="st3" cx="620.3" cy="790.3" r="5.1"/>
	</g>
	<g>
		<circle class="st4" cx="657.3" cy="735" r="5.1"/>
	</g>
	<g>
		<circle class="st4" cx="342.7" cy="605.1" r="6.8"/>
	</g>
	<g>
		<circle class="st3" cx="379.7" cy="549.8" r="6.8"/>
	</g>
	<g>
		<circle class="st2" cx="435" cy="512.8" r="6.8"/>
	</g>
	<g>
		<circle class="st4" cx="685.2" cy="777.5" r="3.4"/>
	</g>
	<g>
		<circle class="st3" cx="722.3" cy="722.3" r="3.4"/>
	</g>
	<g>
		<circle class="st3" cx="407.7" cy="592.3" r="5.1"/>
	</g>
	<g>
		<circle class="st4" cx="444.7" cy="537" r="5.1"/>
	</g>
	<g>
		<circle class="st2" cx="777.5" cy="685.2" r="3.4"/>
	</g>
	<g>
		<circle class="st2" cx="463" cy="555.3" r="5.1"/>
	</g>
	<g>
		<circle class="st1" cx="927.6" cy="585" r="6.8"/>
	</g>
	<g>
		<circle class="st0" cx="862.6" cy="572.3" r="5.1"/>
	</g>
	<g>
		<circle class="st7" cx="797.6" cy="585" r="5.1"/>
	</g>
	<g>
		<circle class="st6" cx="742.3" cy="622.1" r="5.1"/>
	</g>
	<g>
		<circle class="st5" cx="705.3" cy="677.3" r="5.1"/>
	</g>
	<g>
		<circle class="st1" cx="807.3" cy="535.2" r="5.1"/>
	</g>
	<g>
		<circle class="st7" cx="742.3" cy="548" r="5.1"/>
	</g>
	<g>
		<circle class="st6" cx="687.1" cy="585" r="5.1"/>
	</g>
	<g>
		<circle class="st5" cx="650" cy="640.3" r="5.1"/>
	</g>
	<g>
		<circle class="st2" cx="677.3" cy="535.2" r="3.4"/>
	</g>
	<g>
		<circle class="st3" cx="622.1" cy="572.3" r="3.4"/>
	</g>
	<g>
		<circle class="st4" cx="585" cy="627.5" r="3.4"/>
	</g>
	<g>
		<circle class="st5" cx="557.1" cy="585" r="6.8"/>
	</g>
	<g>
		<circle class="st6" cx="520" cy="640.3" r="6.8"/>
	</g>
	<g>
		<circle class="st7" cx="464.8" cy="677.3" r="6.8"/>
	</g>
	<g>
		<circle class="st1" cx="770.3" cy="480" r="3.4"/>
	</g>
	<g>
		<circle class="st7" cx="705.3" cy="492.7" r="6.8"/>
	</g>
	<g>
		<circle class="st6" cx="650" cy="529.8" r="6.8"/>
	</g>
	<g>
		<circle class="st5" cx="613" cy="585" r="6.8"/>
	</g>
	<g>
		<circle class="st2" cx="640.3" cy="480" r="5.1"/>
	</g>
	<g>
		<circle class="st3" cx="585" cy="517" r="5.1"/>
	</g>
	<g>
		<circle class="st4" cx="548" cy="572.3" r="5.1"/>
	</g>
	<g>
		<circle class="st5" cx="520" cy="529.8" r="5.1"/>
	</g>
	<g>
		<circle class="st6" cx="483" cy="585" r="5.1"/>
	</g>
	<g>
		<circle class="st7" cx="427.7" cy="622.1" r="5.1"/>
	</g>
	<g>
		<circle class="st7" cx="585" cy="442.9" r="5.1"/>
	</g>
	<g>
		<circle class="st6" cx="529.8" cy="480" r="5.1"/>
	</g>
	<g>
		<circle class="st5" cx="492.7" cy="535.2" r="5.1"/>
	</g>
	<g>
		<circle class="st4" cx="464.8" cy="492.7" r="5.1"/>
	</g>
	<g>
		<circle class="st3" cx="427.7" cy="548" r="5.1"/>
	</g>
	<g>
		<circle class="st2" cx="372.5" cy="585" r="5.1"/>
	</g>
	<g>
		<circle class="st5" cx="399.8" cy="480" r="3.4"/>
	</g>
	<g>
		<circle class="st6" cx="362.7" cy="535.2" r="3.4"/>
	</g>
	<g>
		<circle class="st7" cx="307.5" cy="572.3" r="3.4"/>
	</g>
	<g>
		<circle class="st1" cx="242.5" cy="585" r="6.8"/>
	</g>
	<g>
		<circle class="st1" cx="757.5" cy="415" r="6.8"/>
	</g>
	<g>
		<circle class="st7" cx="692.5" cy="427.7" r="3.4"/>
	</g>
	<g>
		<circle class="st6" cx="637.3" cy="464.8" r="3.4"/>
	</g>
	<g>
		<circle class="st5" cx="600.2" cy="520" r="3.4"/>
	</g>
	<g>
		<circle class="st2" cx="627.5" cy="415" r="5.1"/>
	</g>
	<g>
		<circle class="st3" cx="572.3" cy="452" r="5.1"/>
	</g>
	<g>
		<circle class="st4" cx="535.2" cy="507.3" r="5.1"/>
	</g>
	<g>
		<circle class="st5" cx="507.3" cy="464.8" r="5.1"/>
	</g>
	<g>
		<circle class="st6" cx="470.2" cy="520" r="5.1"/>
	</g>
	<g>
		<circle class="st7" cx="415" cy="557.1" r="5.1"/>
	</g>
	<g>
		<circle class="st7" cx="572.3" cy="377.9" r="5.1"/>
	</g>
	<g>
		<circle class="st6" cx="517" cy="415" r="5.1"/>
	</g>
	<g>
		<circle class="st5" cx="480" cy="470.2" r="5.1"/>
	</g>
	<g>
		<circle class="st4" cx="452" cy="427.7" r="5.1"/>
	</g>
	<g>
		<circle class="st3" cx="415" cy="483" r="5.1"/>
	</g>
	<g>
		<circle class="st2" cx="359.7" cy="520" r="5.1"/>
	</g>
	<g>
		<circle class="st5" cx="387" cy="415" r="6.8"/>
	</g>
	<g>
		<circle class="st6" cx="350" cy="470.2" r="6.8"/>
	</g>
	<g>
		<circle class="st7" cx="294.7" cy="507.3" r="6.8"/>
	</g>
	<g>
		<circle class="st1" cx="229.7" cy="520" r="3.4"/>
	</g>
	<g>
		<circle class="st7" cx="535.2" cy="322.7" r="6.8"/>
	</g>
	<g>
		<circle class="st6" cx="480" cy="359.7" r="6.8"/>
	</g>
	<g>
		<circle class="st5" cx="442.9" cy="415" r="6.8"/>
	</g>
	<g>
		<circle class="st4" cx="415" cy="372.5" r="3.4"/>
	</g>
	<g>
		<circle class="st3" cx="377.9" cy="427.7" r="3.4"/>
	</g>
	<g>
		<circle class="st2" cx="322.7" cy="464.8" r="3.4"/>
	</g>
	<g>
		<circle class="st5" cx="350" cy="359.7" r="5.1"/>
	</g>
	<g>
		<circle class="st6" cx="312.9" cy="415" r="5.1"/>
	</g>
	<g>
		<circle class="st7" cx="257.7" cy="452" r="5.1"/>
	</g>
	<g>
		<circle class="st1" cx="192.7" cy="464.8" r="5.1"/>
	</g>
	<g>
		<circle class="st5" cx="294.7" cy="322.7" r="5.1"/>
	</g>
	<g>
		<circle class="st6" cx="257.7" cy="377.9" r="5.1"/>
	</g>
	<g>
		<circle class="st7" cx="202.4" cy="415" r="5.1"/>
	</g>
	<g>
		<circle class="st0" cx="137.4" cy="427.7" r="5.1"/>
	</g>
	<g>
		<circle class="st1" cx="72.4" cy="415" r="6.8"/>
	</g>
	<g>
		<circle class="st2" cx="537" cy="444.7" r="5.1"/>
	</g>
	<g>
		<circle class="st2" cx="222.5" cy="314.8" r="3.4"/>
	</g>
	<g>
		<circle class="st4" cx="555.3" cy="463" r="5.1"/>
	</g>
	<g>
		<circle class="st3" cx="592.3" cy="407.7" r="5.1"/>
	</g>
	<g>
		<circle class="st3" cx="277.7" cy="277.7" r="3.4"/>
	</g>
	<g>
		<circle class="st4" cx="314.8" cy="222.5" r="3.4"/>
	</g>
	<g>
		<circle class="st2" cx="565" cy="487.2" r="6.8"/>
	</g>
	<g>
		<circle class="st3" cx="620.3" cy="450.2" r="6.8"/>
	</g>
	<g>
		<circle class="st4" cx="657.3" cy="394.9" r="6.8"/>
	</g>
	<g>
		<circle class="st4" cx="342.7" cy="265" r="5.1"/>
	</g>
	<g>
		<circle class="st3" cx="379.7" cy="209.7" r="5.1"/>
	</g>
	<g>
		<circle class="st2" cx="435" cy="172.7" r="5.1"/>
	</g>
	<g>
		<circle class="st0" cx="565" cy="512.8" r="3.4"/>
	</g>
	<g>
		<circle class="st2" cx="630" cy="500" r="6.8"/>
	</g>
	<g>
		<circle class="st3" cx="685.2" cy="463" r="6.8"/>
	</g>
	<g>
		<circle class="st4" cx="722.3" cy="407.7" r="6.8"/>
	</g>
	<g>
		<circle class="st5" cx="407.7" cy="277.7" r="3.4"/>
	</g>
	<g>
		<circle class="st6" cx="444.7" cy="222.5" r="3.4"/>
	</g>
	<g>
		<circle class="st7" cx="500" cy="186" r="3.4"/>
	</g>
	<g>
		<circle class="st1" cx="565" cy="172.7" r="6.8"/>
	</g>
	<g>
		<circle class="st7" cx="555.3" cy="537" r="6.8"/>
	</g>
	<g>
		<circle class="st0" cx="620.3" cy="549.8" r="6.8"/>
	</g>
	<g>
		<circle class="st2" cx="685.2" cy="537" r="3.4"/>
	</g>
	<g>
		<circle class="st3" cx="740.5" cy="500" r="3.4"/>
	</g>
	<g>
		<circle class="st4" cx="777.5" cy="444.7" r="3.4"/>
	</g>
	<g>
		<circle class="st5" cx="463" cy="314.8" r="6.8"/>
	</g>
	<g>
		<circle class="st6" cx="500" cy="259.5" r="6.8"/>
	</g>
	<g>
		<circle class="st7" cx="555.3" cy="222.5" r="6.8"/>
	</g>
	<g>
		<circle class="st1" cx="620.3" cy="209.7" r="3.4"/>
	</g>
	<g>
		<circle class="st7" cx="685.2" cy="222.5" r="5.1"/>
	</g>
	<g>
		<circle class="st6" cx="537" cy="555.3" r="5.1"/>
	</g>
	<g>
		<circle class="st6" cx="592.3" cy="592.3" r="3.4"/>
	</g>
	<g>
		<circle class="st0" cx="657.3" cy="605.1" r="5.1"/>
	</g>
	<g>
		<circle class="st2" cx="722.3" cy="592.3" r="5.1"/>
	</g>
	<g>
		<circle class="st3" cx="777.5" cy="555.3" r="5.1"/>
	</g>
	<g>
		<circle class="st4" cx="814" cy="500" r="5.1"/>
	</g>
	<g>
		<circle class="st5" cx="500" cy="370" r="5.1"/>
	</g>
	<g>
		<circle class="st6" cx="537" cy="314.8" r="5.1"/>
	</g>
	<g>
		<circle class="st7" cx="592.3" cy="277.7" r="5.1"/>
	</g>
	<g>
		<circle class="st1" cx="657.3" cy="265" r="5.1"/>
	</g>
	<g>
		<circle class="st5" cx="722.3" cy="277.7" r="5.1"/>
	</g>
	<g>
		<circle class="st5" cx="777.5" cy="314.8" r="6.8"/>
	</g>
	<g>
		<circle class="st6" cx="512.8" cy="565" r="5.1"/>
	</g>
	<g>
		<circle class="st5" cx="549.8" cy="620.3" r="3.4"/>
	</g>
	<g>
		<circle class="st6" cx="605.1" cy="657.3" r="6.8"/>
	</g>
	<g>
		<circle class="st1" cx="670.1" cy="670.1" r="5.1"/>
	</g>
	<g>
		<circle class="st7" cx="735" cy="657.3" r="5.1"/>
	</g>
	<g>
		<circle class="st6" cx="790.3" cy="620.3" r="5.1"/>
	</g>
	<g>
		<circle class="st5" cx="827.3" cy="565" r="5.1"/>
	</g>
	<g>
		<circle class="st4" cx="512.8" cy="435" r="5.1"/>
	</g>
	<g>
		<circle class="st3" cx="549.8" cy="379.7" r="5.1"/>
	</g>
	<g>
		<circle class="st2" cx="605.1" cy="342.7" r="5.1"/>
	</g>
	<g>
		<circle class="st0" cx="670.1" cy="329.9" r="5.1"/>
	</g>
	<g>
		<circle class="st7" cx="735" cy="342.7" r="3.4"/>
	</g>
	<g>
		<circle class="st7" cx="790.3" cy="379.7" r="5.1"/>
	</g>
	<g>
		<circle class="st5" cx="827.3" cy="435" r="5.1"/>
	</g>
	<g>
		<circle class="st7" cx="862.6" cy="257.7" r="3.4"/>
	</g>
	<g>
		<circle class="st6" cx="807.3" cy="294.7" r="3.4"/>
	</g>
	<g>
		<circle class="st5" cx="770.3" cy="350" r="3.4"/>
	</g>
	<g>
		<circle class="st4" cx="742.3" cy="307.5" r="6.8"/>
	</g>
	<g>
		<circle class="st3" cx="705.3" cy="362.7" r="6.8"/>
	</g>
	<g>
		<circle class="st2" cx="650" cy="399.8" r="6.8"/>
	</g>
	<g>
		<circle class="st4" cx="677.3" cy="294.7" r="5.1"/>
	</g>
	<g>
		<circle class="st3" cx="640.3" cy="350" r="5.1"/>
	</g>
	<g>
		<circle class="st2" cx="585" cy="387" r="5.1"/>
	</g>
	<g>
		<circle class="st1" cx="520" cy="399.8" r="5.1"/>
	</g>
	<g>
		<circle class="st4" cx="622.1" cy="257.7" r="5.1"/>
	</g>
	<g>
		<circle class="st3" cx="585" cy="312.9" r="5.1"/>
	</g>
	<g>
		<circle class="st2" cx="529.8" cy="350" r="5.1"/>
	</g>
	<g>
		<circle class="st0" cx="464.8" cy="362.7" r="5.1"/>
	</g>
	<g>
		<circle class="st1" cx="399.8" cy="350" r="3.4"/>
	</g>
	<g>
		<circle class="st4" cx="585" cy="202.4" r="3.4"/>
	</g>
	<g>
		<circle class="st3" cx="548" cy="257.7" r="3.4"/>
	</g>
	<g>
		<circle class="st2" cx="492.7" cy="294.7" r="3.4"/>
	</g>
	<g>
		<circle class="st0" cx="427.7" cy="307.5" r="6.8"/>
	</g>
	<g>
		<circle class="st1" cx="362.7" cy="294.7" r="5.1"/>
	</g>
	<g>
		<circle class="st0" cx="307.5" cy="257.7" r="5.1"/>
	</g>
	<g>
		<circle class="st4" cx="572.3" cy="137.4" r="6.8"/>
	</g>
	<g>
		<circle class="st3" cx="535.2" cy="192.7" r="6.8"/>
	</g>
	<g>
		<circle class="st2" cx="480" cy="229.7" r="6.8"/>
	</g>
	<g>
		<circle class="st0" cx="415" cy="242.5" r="3.4"/>
	</g>
	<g>
		<circle class="st1" cx="350" cy="229.7" r="5.1"/>
	</g>
	<g>
		<circle class="st0" cx="294.7" cy="192.7" r="5.1"/>
	</g>
	<g>
		<circle class="st0" cx="257.7" cy="137.4" r="6.8"/>
	</g>
	<g>
		<circle class="st0" cx="585" cy="72.4" r="3.4"/>
	</g>
</g>
</svg>
