G90
G21
M42 P4 S0
G1 Z40 F5000
G28
G1 Z40 F5000
G1 X100 Y100 F5000
G1 Z0 F5000
G1 Z2 F5000 
G1 F5000 X81.475006 Y163.502 E1 
G1 Z0 F5000 
M400
M42 P4 S255
G2 I1.7 J0 F1000 E5 
G1 F5000 X82.475006 Y163.502 E1 
G2 I0.70000005 J0 F1000 E5 
M400
M42 P4 S0
G1 Z2 F5000 
G1 F5000 X127.2335 Y154.077 E1 
G1 Z0 F5000 
M400
M42 P4 S255
G2 I3.4 J0 F1000 E5 
G1 F5000 X128.2335 Y154.077 E1 
G2 I2.4 J0 F1000 E5 
G1 F5000 X129.2335 Y154.077 E1 
G2 I1.4000001 J0 F1000 E5 
G1 F5000 X130.2335 Y154.077 E1 
G2 I0.4000001 J0 F1000 E5 
M400
M42 P4 S0
G1 Z2 F5000 
G1 F5000 X122.71849 Y146.0585 E1 
G1 Z0 F5000 
M400
M42 P4 S255
G2 I2.55 J0 F1000 E5 
G1 F5000 X123.71849 Y146.0585 E1 
G2 I1.55 J0 F1000 E5 
G1 F5000 X124.71849 Y146.0585 E1 
G2 I0.54999995 J0 F1000 E5 
M400
M42 P4 S0
G1 Z2 F5000 
G1 F5000 X106.125 Y138.8375 E1 
G1 Z0 F5000 
M400
M42 P4 S255
G2 I1.7 J0 F1000 E5 
G1 F5000 X107.125 Y138.8375 E1 
G2 I0.70000005 J0 F1000 E5 
M400
M42 P4 S0
G1 Z2 F5000 
G1 F5000 X120.862495 Y136.6335 E1 
G1 Z0 F5000 
M400
M42 P4 S255
G2 I2.55 J0 F1000 E5 
G1 F5000 X121.862495 Y136.6335 E1 
G2 I1.55 J0 F1000 E5 
G1 F5000 X122.862495 Y136.6335 E1 
G2 I0.54999995 J0 F1000 E5 
M400
M42 P4 S0
G1 Z2 F5000 
G1 F5000 X102.5835 Y129.4125 E1 
G1 Z0 F5000 
M400
M42 P4 S255
G2 I3.4 J0 F1000 E5 
G1 F5000 X103.5835 Y129.4125 E1 
G2 I2.4 J0 F1000 E5 
G1 F5000 X104.5835 Y129.4125 E1 
G2 I1.4000001 J0 F1000 E5 
G1 F5000 X105.5835 Y129.4125 E1 
G2 I0.4000001 J0 F1000 E5 
M400
M42 P4 S0
G1 Z2 F5000 
G1 F5000 X98.05399 Y121.4085 E1 
G1 Z0 F5000 
M400
M42 P4 S255
G2 I2.55 J0 F1000 E5 
G1 F5000 X99.05399 Y121.4085 E1 
G2 I1.55 J0 F1000 E5 
G1 F5000 X100.05399 Y121.4085 E1 
G2 I0.54999995 J0 F1000 E5 
M400
M42 P4 S0
G1 Z2 F5000 
G1 F5000 X68.28549 Y126.1645 E1 
G1 Z0 F5000 
M400
M42 P4 S255
G2 I2.55 J0 F1000 E5 
G1 F5000 X69.28549 Y126.1645 E1 
G2 I1.55 J0 F1000 E5 
G1 F5000 X70.28549 Y126.1645 E1 
G2 I0.54999995 J0 F1000 E5 
M400
M42 P4 S0
G1 Z2 F5000 
G1 F5000 X70.141495 Y86.2605 E1 
G1 Z0 F5000 
M400
M42 P4 S255
G2 I2.55 J0 F1000 E5 
G1 F5000 X71.141495 Y86.2605 E1 
G2 I1.55 J0 F1000 E5 
G1 F5000 X72.141495 Y86.2605 E1 
G2 I0.54999995 J0 F1000 E5 
M400
M42 P4 S0
G1 Z2 F5000 
G1 F5000 X74.6565 Y94.279 E1 
G1 Z0 F5000 
M400
M42 P4 S255
G2 I3.4 J0 F1000 E5 
G1 F5000 X75.6565 Y94.279 E1 
G2 I2.4 J0 F1000 E5 
G1 F5000 X76.6565 Y94.279 E1 
G2 I1.4000001 J0 F1000 E5 
G1 F5000 X77.6565 Y94.279 E1 
G2 I0.4000001 J0 F1000 E5 
M400
M42 P4 S0
G1 Z2 F5000 
G1 F5000 X84.375 Y99.644005 E1 
G1 Z0 F5000 
M400
M42 P4 S255
G2 I1.7 J0 F1000 E5 
G1 F5000 X85.375 Y99.644005 E1 
G2 I0.70000005 J0 F1000 E5 
M400
M42 P4 S0
G1 Z2 F5000 
G1 F5000 X145.527 Y111.983505 E1 
G1 Z0 F5000 
M400
M42 P4 S255
G2 I2.55 J0 F1000 E5 
G1 F5000 X146.527 Y111.983505 E1 
G2 I1.55 J0 F1000 E5 
G1 F5000 X147.527 Y111.983505 E1 
G2 I0.54999995 J0 F1000 E5 
M400
M42 P4 S0
G1 Z2 F5000 
G1 F5000 X40.373 Y91.0165 E1 
G1 Z0 F5000 
M400
M42 P4 S255
G2 I2.55 J0 F1000 E5 
G1 F5000 X41.373 Y91.0165 E1 
G2 I1.55 J0 F1000 E5 
G1 F5000 X42.373 Y91.0165 E1 
G2 I0.54999995 J0 F1000 E5 
M400
M42 P4 S0
G1 Z2 F5000 
G1 F5000 X103.225006 Y103.355995 E1 
G1 Z0 F5000 
M400
M42 P4 S255
G2 I1.7 J0 F1000 E5 
G1 F5000 X104.225006 Y103.355995 E1 
G2 I0.70000005 J0 F1000 E5 
M400
M42 P4 S0
G1 Z2 F5000 
G1 F5000 X109.543495 Y108.721 E1 
G1 Z0 F5000 
M400
M42 P4 S255
G2 I3.4 J0 F1000 E5 
G1 F5000 X110.543495 Y108.721 E1 
G2 I2.4 J0 F1000 E5 
G1 F5000 X111.543495 Y108.721 E1 
G2 I1.4000001 J0 F1000 E5 
G1 F5000 X112.543495 Y108.721 E1 
G2 I0.4000001 J0 F1000 E5 
M400
M42 P4 S0
G1 Z2 F5000 
G1 F5000 X115.7585 Y116.739494 E1 
G1 Z0 F5000 
M400
M42 P4 S255
G2 I2.55 J0 F1000 E5 
G1 F5000 X116.7585 Y116.739494 E1 
G2 I1.55 J0 F1000 E5 
G1 F5000 X117.7585 Y116.739494 E1 
G2 I0.54999995 J0 F1000 E5 
M400
M42 P4 S0
G1 Z2 F5000 
G1 F5000 X117.614494 Y76.835495 E1 
G1 Z0 F5000 
M400
M42 P4 S255
G2 I2.55 J0 F1000 E5 
G1 F5000 X118.614494 Y76.835495 E1 
G2 I1.55 J0 F1000 E5 
G1 F5000 X119.614494 Y76.835495 E1 
G2 I0.54999995 J0 F1000 E5 
M400
M42 P4 S0
G1 Z2 F5000 
G1 F5000 X87.846 Y81.59151 E1 
G1 Z0 F5000 
M400
M42 P4 S255
G2 I2.55 J0 F1000 E5 
G1 F5000 X88.846 Y81.59151 E1 
G2 I1.55 J0 F1000 E5 
G1 F5000 X89.846 Y81.59151 E1 
G2 I0.54999995 J0 F1000 E5 
M400
M42 P4 S0
G1 Z2 F5000 
G1 F5000 X81.6165 Y73.5875 E1 
G1 Z0 F5000 
M400
M42 P4 S255
G2 I3.4 J0 F1000 E5 
G1 F5000 X82.6165 Y73.5875 E1 
G2 I2.4 J0 F1000 E5 
G1 F5000 X83.6165 Y73.5875 E1 
G2 I1.4000001 J0 F1000 E5 
G1 F5000 X84.6165 Y73.5875 E1 
G2 I0.4000001 J0 F1000 E5 
M400
M42 P4 S0
G1 Z2 F5000 
G1 F5000 X65.0375 Y66.3665 E1 
G1 Z0 F5000 
M400
M42 P4 S255
G2 I2.55 J0 F1000 E5 
G1 F5000 X66.0375 Y66.3665 E1 
G2 I1.55 J0 F1000 E5 
G1 F5000 X67.0375 Y66.3665 E1 
G2 I0.54999995 J0 F1000 E5 
M400
M42 P4 S0
G1 Z2 F5000 
G1 F5000 X81.475006 Y64.162506 E1 
G1 Z0 F5000 
M400
M42 P4 S255
G2 I1.7 J0 F1000 E5 
G1 F5000 X82.475006 Y64.162506 E1 
G2 I0.70000005 J0 F1000 E5 
M400
M42 P4 S0
G1 Z2 F5000 
G1 F5000 X63.181507 Y56.941498 E1 
G1 Z0 F5000 
M400
M42 P4 S255
G2 I2.55 J0 F1000 E5 
G1 F5000 X64.1815 Y56.941498 E1 
G2 I1.55 J0 F1000 E5 
G1 F5000 X65.1815 Y56.941498 E1 
G2 I0.54999995 J0 F1000 E5 
M400
M42 P4 S0
G1 Z2 F5000 
G1 F5000 X56.966503 Y48.923 E1 
G1 Z0 F5000 
M400
M42 P4 S255
G2 I3.4 J0 F1000 E5 
G1 F5000 X57.966503 Y48.923 E1 
G2 I2.4 J0 F1000 E5 
G1 F5000 X58.966503 Y48.923 E1 
G2 I1.4000001 J0 F1000 E5 
G1 F5000 X59.966503 Y48.923 E1 
G2 I0.4000001 J0 F1000 E5 
M400
M42 P4 S0
G1 Z2 F5000 
G1 F5000 X106.125 Y39.498 E1 
G1 Z0 F5000 
M400
M42 P4 S255
G2 I1.7 J0 F1000 E5 
G1 F5000 X107.125 Y39.498 E1 
G2 I0.70000005 J0 F1000 E5 
M400
M42 P4 S0
M42 P4 S0
G1 Z40 F5000
G28 X0 Y0
M84
M104 S0
