G90
G21
M42 P4 S0
G1 Z40 F5000
G28
G1 Z40 F5000
G1 X100 Y100 F5000
G1 Z0 F5000
G1 Z2 F5000 
G1 F5000 X60.55 Y139.14 E1 
G1 Z0 F5000 
M400
M42 P4 S255
G2 I1.7 J0 F1000 E5 
G1 F5000 X61.55 Y139.14 E1 
G2 I0.70000005 J0 F1000 E5 
M400
M42 P4 S0
G1 Z2 F5000 
G1 F5000 X107.94499 Y129.39 E1 
G1 Z0 F5000 
M400
M42 P4 S255
G2 I3.4 J0 F1000 E5 
G1 F5000 X108.94499 Y129.39 E1 
G2 I2.4 J0 F1000 E5 
G1 F5000 X109.94499 Y129.39 E1 
G2 I1.4000001 J0 F1000 E5 
G1 F5000 X110.94499 Y129.39 E1 
G2 I0.4000001 J0 F1000 E5 
M400
M42 P4 S0
G1 Z2 F5000 
G1 F5000 X103.244995 Y121.09499 E1 
G1 Z0 F5000 
M400
M42 P4 S255
G2 I2.55 J0 F1000 E5 
G1 F5000 X104.244995 Y121.09499 E1 
G2 I1.55 J0 F1000 E5 
G1 F5000 X105.244995 Y121.09499 E1 
G2 I0.54999995 J0 F1000 E5 
M400
M42 P4 S0
G1 Z2 F5000 
G1 F5000 X86.05 Y113.625 E1 
G1 Z0 F5000 
M400
M42 P4 S255
G2 I1.7 J0 F1000 E5 
G1 F5000 X87.05 Y113.625 E1 
G2 I0.70000005 J0 F1000 E5 
M400
M42 P4 S0
G1 Z2 F5000 
G1 F5000 X101.325 Y111.34499 E1 
G1 Z0 F5000 
M400
M42 P4 S255
G2 I2.55 J0 F1000 E5 
G1 F5000 X102.325 Y111.34499 E1 
G2 I1.55 J0 F1000 E5 
G1 F5000 X103.325 Y111.34499 E1 
G2 I0.54999995 J0 F1000 E5 
M400
M42 P4 S0
G1 Z2 F5000 
G1 F5000 X82.445 Y103.875 E1 
G1 Z0 F5000 
M400
M42 P4 S255
G2 I3.4 J0 F1000 E5 
G1 F5000 X83.445 Y103.875 E1 
G2 I2.4 J0 F1000 E5 
G1 F5000 X84.445 Y103.875 E1 
G2 I1.4000001 J0 F1000 E5 
G1 F5000 X85.445 Y103.875 E1 
G2 I0.4000001 J0 F1000 E5 
M400
M42 P4 S0
G1 Z2 F5000 
G1 F5000 X77.729996 Y95.595 E1 
G1 Z0 F5000 
M400
M42 P4 S255
G2 I2.55 J0 F1000 E5 
G1 F5000 X78.729996 Y95.595 E1 
G2 I1.55 J0 F1000 E5 
G1 F5000 X79.729996 Y95.595 E1 
G2 I0.54999995 J0 F1000 E5 
M400
M42 P4 S0
G1 Z2 F5000 
G1 F5000 X46.935 Y100.515 E1 
G1 Z0 F5000 
M400
M42 P4 S255
G2 I2.55 J0 F1000 E5 
G1 F5000 X47.935 Y100.515 E1 
G2 I1.55 J0 F1000 E5 
G1 F5000 X48.935 Y100.515 E1 
G2 I0.54999995 J0 F1000 E5 
M400
M42 P4 S0
G1 Z2 F5000 
G1 F5000 X48.855 Y59.235 E1 
G1 Z0 F5000 
M400
M42 P4 S255
G2 I2.55 J0 F1000 E5 
G1 F5000 X49.855 Y59.235 E1 
G2 I1.55 J0 F1000 E5 
G1 F5000 X50.855 Y59.235 E1 
G2 I0.54999995 J0 F1000 E5 
M400
M42 P4 S0
G1 Z2 F5000 
G1 F5000 X53.555 Y67.53001 E1 
G1 Z0 F5000 
M400
M42 P4 S255
G2 I3.4 J0 F1000 E5 
G1 F5000 X54.555 Y67.53001 E1 
G2 I2.4 J0 F1000 E5 
G1 F5000 X55.555 Y67.53001 E1 
G2 I1.4000001 J0 F1000 E5 
G1 F5000 X56.555 Y67.53001 E1 
G2 I0.4000001 J0 F1000 E5 
M400
M42 P4 S0
G1 Z2 F5000 
G1 F5000 X63.55 Y73.08 E1 
G1 Z0 F5000 
M400
M42 P4 S255
G2 I1.7 J0 F1000 E5 
G1 F5000 X64.55 Y73.08 E1 
G2 I0.70000005 J0 F1000 E5 
M400
M42 P4 S0
G1 Z2 F5000 
G1 F5000 X126.84 Y85.845 E1 
G1 Z0 F5000 
M400
M42 P4 S255
G2 I2.55 J0 F1000 E5 
G1 F5000 X127.84 Y85.845 E1 
G2 I1.55 J0 F1000 E5 
G1 F5000 X128.84 Y85.845 E1 
G2 I0.54999995 J0 F1000 E5 
M400
M42 P4 S0
G1 Z2 F5000 
G1 F5000 X18.060001 Y64.155 E1 
G1 Z0 F5000 
M400
M42 P4 S255
G2 I2.55 J0 F1000 E5 
G1 F5000 X19.060001 Y64.155 E1 
G2 I1.55 J0 F1000 E5 
G1 F5000 X20.060001 Y64.155 E1 
G2 I0.54999995 J0 F1000 E5 
M400
M42 P4 S0
G1 Z2 F5000 
G1 F5000 X83.05 Y76.92 E1 
G1 Z0 F5000 
M400
M42 P4 S255
G2 I1.7 J0 F1000 E5 
G1 F5000 X84.05 Y76.92 E1 
G2 I0.70000005 J0 F1000 E5 
M400
M42 P4 S0
G1 Z2 F5000 
G1 F5000 X89.645 Y82.46999 E1 
G1 Z0 F5000 
M400
M42 P4 S255
G2 I3.4 J0 F1000 E5 
G1 F5000 X90.645 Y82.46999 E1 
G2 I2.4 J0 F1000 E5 
G1 F5000 X91.645 Y82.46999 E1 
G2 I1.4000001 J0 F1000 E5 
G1 F5000 X92.645 Y82.46999 E1 
G2 I0.4000001 J0 F1000 E5 
M400
M42 P4 S0
G1 Z2 F5000 
G1 F5000 X96.045 Y90.765 E1 
G1 Z0 F5000 
M400
M42 P4 S255
G2 I2.55 J0 F1000 E5 
G1 F5000 X97.045 Y90.765 E1 
G2 I1.55 J0 F1000 E5 
G1 F5000 X98.045 Y90.765 E1 
G2 I0.54999995 J0 F1000 E5 
M400
M42 P4 S0
G1 Z2 F5000 
G1 F5000 X97.965 Y49.485 E1 
G1 Z0 F5000 
M400
M42 P4 S255
G2 I2.55 J0 F1000 E5 
G1 F5000 X98.965 Y49.485 E1 
G2 I1.55 J0 F1000 E5 
G1 F5000 X99.965 Y49.485 E1 
G2 I0.54999995 J0 F1000 E5 
M400
M42 P4 S0
G1 Z2 F5000 
G1 F5000 X67.17 Y54.405003 E1 
G1 Z0 F5000 
M400
M42 P4 S255
G2 I2.55 J0 F1000 E5 
G1 F5000 X68.17 Y54.405003 E1 
G2 I1.55 J0 F1000 E5 
G1 F5000 X69.17 Y54.405003 E1 
G2 I0.54999995 J0 F1000 E5 
M400
M42 P4 S0
G1 Z2 F5000 
G1 F5000 X60.754997 Y46.125 E1 
G1 Z0 F5000 
M400
M42 P4 S255
G2 I3.4 J0 F1000 E5 
G1 F5000 X61.754997 Y46.125 E1 
G2 I2.4 J0 F1000 E5 
G1 F5000 X62.754997 Y46.125 E1 
G2 I1.4000001 J0 F1000 E5 
G1 F5000 X63.754997 Y46.125 E1 
G2 I0.4000001 J0 F1000 E5 
M400
M42 P4 S0
G1 Z2 F5000 
G1 F5000 X43.575 Y38.655003 E1 
G1 Z0 F5000 
M400
M42 P4 S255
G2 I2.55 J0 F1000 E5 
G1 F5000 X44.575 Y38.655003 E1 
G2 I1.55 J0 F1000 E5 
G1 F5000 X45.575 Y38.655003 E1 
G2 I0.54999995 J0 F1000 E5 
M400
M42 P4 S0
G1 Z2 F5000 
G1 F5000 X60.55 Y36.375 E1 
G1 Z0 F5000 
M400
M42 P4 S255
G2 I1.7 J0 F1000 E5 
G1 F5000 X61.55 Y36.375 E1 
G2 I0.70000005 J0 F1000 E5 
M400
M42 P4 S0
G1 Z2 F5000 
G1 F5000 X41.655006 Y28.905 E1 
G1 Z0 F5000 
M400
M42 P4 S255
G2 I2.55 J0 F1000 E5 
G1 F5000 X42.655006 Y28.905 E1 
G2 I1.55 J0 F1000 E5 
G1 F5000 X43.655006 Y28.905 E1 
G2 I0.54999995 J0 F1000 E5 
M400
M42 P4 S0
G1 Z2 F5000 
G1 F5000 X35.255 Y20.61 E1 
G1 Z0 F5000 
M400
M42 P4 S255
G2 I3.4 J0 F1000 E5 
G1 F5000 X36.255 Y20.61 E1 
G2 I2.4 J0 F1000 E5 
G1 F5000 X37.255 Y20.61 E1 
G2 I1.4000001 J0 F1000 E5 
G1 F5000 X38.255 Y20.61 E1 
G2 I0.4000001 J0 F1000 E5 
M400
M42 P4 S0
G1 Z2 F5000 
G1 F5000 X86.05 Y10.860001 E1 
G1 Z0 F5000 
M400
M42 P4 S255
G2 I1.7 J0 F1000 E5 
G1 F5000 X87.05 Y10.860001 E1 
G2 I0.70000005 J0 F1000 E5 
M400
M42 P4 S0
M42 P4 S0
G1 Z40 F5000
G28 X0 Y0
M84
M104 S0
