<?xml version="1.0" encoding="utf-8"?>
<!-- Generator: Adobe Illustrator 19.1.0, SVG Export Plug-In . SVG Version: 6.00 Build 0)  -->
<!DOCTYPE svg PUBLIC "-//W3C//DTD SVG 1.1//EN" "http://www.w3.org/Graphics/SVG/1.1/DTD/svg11.dtd">
<svg version="1.1" id="Layer_1" xmlns="http://www.w3.org/2000/svg" xmlns:xlink="http://www.w3.org/1999/xlink" x="0px" y="0px"
	 viewBox="0 0 258 181" style="enable-background:new 0 0 258 181;" xml:space="preserve">
<style type="text/css">
	.st0{fill:#8DC63F;}
</style>
<g>
	<path class="st0" d="M255.5,93.2c4-9.9,4.3-26.3-7.5-32.1c-1.5-0.7-2.5-2.4-2.4-4.1c0-0.1,0.6-12.2-5.4-18.6
		c-2.8-3-6.7-4.2-11.9-3.8c-0.5,0-1.1,0-1.5-0.1c0.8,4.7,1.3,11.2-0.1,18.4c-0.1,0.5-0.5,0.9-1,0.9c-0.1,0-0.1,0-0.2,0
		c-0.6-0.1-0.9-0.7-0.8-1.3c1.7-8.4,0.6-15.8-0.5-20.3l0,0c0,0,0,0,0-0.1c-1.1-2.5-5.2-9.9-10.1-10.9c-2.6-0.6-4.9-0.8-7-1
		c-4.4-0.4-8.5-0.8-12.5-4.2c-1.7-1.4-4.6-2.3-7.5-2.3c-2.6,0-4.9,0.7-6.2,2.1c-0.8,0.8-2,1.3-3.2,1.3c-1.2-0.1-2.3-0.6-3.1-1.5
		c0,0-1.3-1.5-3.5-3c-8.4-1.3-20.1,0.6-28.1,7.8c-8.7,7.8-9.9,14.7-9.9,14.8c-0.2,1.1-1.2,1.9-2.2,1.8
		c-13.9-0.4-20.1,14.6-20.1,14.7c-0.3,0.7-1,1.2-1.7,1.3c-12.3,1.3-20.3,18.9-20.3,19c-0.3,0.7-0.9,1.1-1.7,1.2
		c-0.6,0.1-14.5,2.3-20.3,16.1c-6,14.3-0.6,20.8-0.4,21.1c0.4,0.5,0.6,1.1,0.5,1.7c2.6,1.8,9.1,5.4,21.6,6.6c0.2,0,0.4,0,0.6,0.1
		l0,0c1.9,0.2,3.9,0.3,6,0.3c18.3,0.4,23.4-8.6,24.6-11.5c0.2-0.5,0.3-0.8,0.3-0.9c0.1-0.3,0.3-0.5,0.5-0.7c0.3-0.1,0.6-0.2,0.8-0.1
		c0.1,0,6.9,1.7,18.5-4.6c1.5-0.8,3.1-1.7,4.6-2.6c11.2-6.3,23.8-13.5,34.3-3.9c0.4,0.4,0.5,1.1,0.1,1.5s-1.1,0.5-1.5,0.1
		c-9.3-8.6-20.8-2.1-31.9,4.2c-1.6,0.9-3.1,1.8-4.6,2.6c-9.7,5.2-16.3,5.3-18.9,5c0.9,2.6,3.3,12.5-4,20.5c-0.2,0.2-0.5,0.4-0.8,0.4
		s-0.5-0.1-0.7-0.3c-0.4-0.4-0.5-1.1-0.1-1.5c5.3-5.8,4.8-12.9,4-16.5c-2.6,4.2-9,10.5-24.2,10.5c-0.4,0-0.8,0-1.2,0
		c-2.3,0-4.5-0.2-6.4-0.4l0,0c-2,0.5-13.2,3.9-17.4,19.3c2.2,1.5,5.1,2.7,8,2.4c0.6,0,1.1,0.4,1.1,1c0.1,0.6-0.4,1.1-1,1.2
		c-0.4,0-0.7,0-1.1,0c-3.4,0-6.5-1.5-8.9-3.2c-0.1,0-0.3-0.1-0.3-0.3c0,0,0,0-0.1,0c-2.6-1.9-4.3-3.9-4.4-4
		c-0.4-0.4-0.3-1.1,0.1-1.5s1.1-0.3,1.5,0.1c0,0,1.2,1.4,3,2.9c3.3-11.1,10.2-16.2,14.7-18.5c-10.1-1.5-15.7-4.6-18.3-6.4
		c-22.3,24.3-3.9,49.5-3.1,50.5c0.3,0.4,0.4,0.8,0.4,1.3l0,0c1.1,0.9,2.3,1.7,3.7,2.3c2.1,1,5,1.4,8.6,1.4c5.9,0,11.7-1.3,13.7-1.8
		c-3.1-4.1-6.3-10.3-8.2-19.5c-0.1-0.3,0-0.7,0.2-0.9s0.4-0.3,0.6-0.4c0.6-0.1,1.1,0.3,1.3,0.8c1.9,9.7,5.5,15.8,8.7,19.6
		c0.9,0.2,1.8,0.6,2.4,1.4c0,0,2.8,2.2,12.1,4.7c5.3,1.4,10.9,2.2,15.9,2.9c6.1,0.8,10.9,1.5,13.8,3.2c1.4,0.8,5.6,1.9,10.8,1.9
		c3.8,0,9.3-0.6,13.9-3.3c6.2-3.6,8-5.6,8.4-6.1c0.2-0.7,0.6-1.3,1.1-1.8c0.9-0.8,2-1.2,3.2-1.1c0.1,0,0.6,0,1.5,0
		c2.5,0,8.9-0.3,14.8-2.9c3.8-1.7,6.5-4.3,9-6.6c3-2.8,5.8-5.5,9.7-5.8c2.5-0.2,4.4-3.2,4.4-3.2c0.2-0.4,0.5-0.7,0.8-1
		c1.4-2.5,3.3-6.8,4.5-13.1c0.9-4.6,1.3-10.4,0.9-17.3c0-0.6,0.4-1.1,1-1.1s1.1,0.4,1.1,1c0.4,6.1,0.1,11.4-0.6,15.8
		c1.8-1.1,4.5-3.3,6.7-6.8c0.3-0.5,1-0.7,1.5-0.4s0.7,1,0.3,1.5c-3.2,5.3-7.5,7.7-8.9,8.4c-0.9,4.7-2.3,8.3-3.5,10.9h0.1
		c0,0,0.4,0,0.9,0c3.8,0,16.6-0.7,23.5-9.4c7.8-9.8,2.1-21.5,2-21.6c-0.8-1.5-0.5-3.3,0.6-4.6C243.5,112.8,251.2,103.7,255.5,93.2z
		 M197.2,23.1c0.5-0.3,1.1-0.2,1.5,0.3c0.1,0.2,3.5,5.4,4.3,10.1c1.9,0.6,6.6,2.7,10.8,11.3c0.3,0.5,0.1,1.2-0.5,1.4
		c-0.1,0.1-0.3,0.1-0.5,0.1c-0.4,0-0.8-0.2-1-0.6c-4.8-9.6-10-10.3-10-10.3c-0.5,0-0.9-0.4-1-0.9c-0.4-4.4-4-9.8-4.1-9.9
		C196.5,24,196.7,23.4,197.2,23.1z M149.2,37.1c0.1-0.1,5.7-11,19-9.1c0.6,0.1,1,0.6,0.9,1.2c-0.1,0.6-0.6,1-1.2,0.9
		c-11.8-1.8-16.6,7.5-16.8,7.9c-0.2,0.4-0.6,0.6-1,0.6c-0.1,0-0.3,0-0.5-0.1C149.1,38.3,148.9,37.7,149.2,37.1z M100.9,71.7
		c0.3-0.2,7.3-5.3,15.5-3.8c-0.1-4,0.8-14.8,12-20.4c0.5-0.3,1.1,0,1.4,0.5s0,1.2-0.5,1.4c-12.3,6.2-10.8,19.1-10.7,19.7
		c0,0.3-0.1,0.7-0.4,0.9c-0.3,0.2-0.6,0.3-1,0.2c-7.9-2.2-15,3.1-15.1,3.1c-0.2,0.1-0.4,0.2-0.6,0.2c-0.3,0-0.6-0.1-0.8-0.4
		C100.3,72.7,100.4,72,100.9,71.7z M173.2,61.8c5.2,3.7,4.5,7.8,3.8,9.6c-1.8,4.8-8.3,8.3-12.6,6.8c-0.6-0.2-0.8-0.8-0.6-1.4
		c0.2-0.6,0.8-0.8,1.4-0.7c3.1,1.1,8.5-1.9,9.9-5.5c1.1-2.9-0.3-5.6-4-7.8c-1-0.6-2.1-1.1-3.3-1.7c-12-4.9-20.6,6.6-26.9,15
		c-2.4,3.2-4.3,5.8-6.1,7c-5.5,3.8-15.2,2.7-18.2,2.2c-1,3.2-5.2,13.6-15.7,14.5c-0.7,0.1-1.4,0.1-2.1,0.1
		c-10.7,0-13.5-7.1-13.6-7.4c-0.2-0.5,0.1-1.2,0.6-1.4c0.6-0.2,1.1,0.1,1.4,0.6c0.1,0.3,2.8,6.8,13.5,5.9
		c10.9-0.9,14.1-13.7,14.1-13.8c0.1-0.5,0.7-0.9,1.2-0.8c0.1,0,11.9,2.2,17.6-1.7c1.5-1,3.4-3.6,5.6-6.5
		c6.3-8.5,15.8-21.2,29.4-15.7c1.1,0.4,2.1,0.9,2.9,1.4c1.5-1.3,8.9-8.7,3.9-19.5c-4,1.5-6.6,4.9-6.8,5.1c-0.2,0.3-0.5,0.4-0.8,0.4
		c-0.2,0-0.4-0.1-0.6-0.2c-0.5-0.3-0.6-1-0.2-1.5c0.1-0.1,8.2-10.6,18.3-5c0.5,0.3,0.7,0.9,0.4,1.4c-0.3,0.5-0.9,0.7-1.4,0.4
		c-2.4-1.3-4.7-1.6-6.7-1.2C182.2,51.6,175.5,59.5,173.2,61.8z M134.6,123c0.3-0.5,6.8-12.8,23.5-13.7c1.3-3.8,3.4-6.2,3.6-6.3
		c0.4-0.4,1.1-0.5,1.5-0.1s0.4,1.1,0.1,1.5c0,0-2,2.2-3.1,5.6c0,0.1,0.1,0.2,0.1,0.3c0,0.3-0.1,0.6-0.4,0.8
		c-0.5,1.9-0.7,4.1-0.1,6.5c0.1,0.5-0.2,1.1-0.8,1.3c-0.1,0-0.1,0-0.2,0c-0.5,0-0.9-0.3-1-0.8c-0.6-2.4-0.5-4.7-0.1-6.6
		c-15,1.2-21,12.4-21,12.5c-0.2,0.4-0.6,0.6-1,0.6c-0.1,0-0.3,0-0.5-0.1C134.5,124.1,134.3,123.5,134.6,123z M175.7,157
		c-4.3,0.4-9.2-1.1-11-1.7c-6.6,8.3-15.2,8.8-17.1,8.8c-0.2,0-0.3,0-0.3,0c-0.6,0-1-0.5-1-1.1s0.5-1.1,1.1-1c0.1,0,9.5,0.3,16.1-8.5
		c0.3-0.4,0.8-0.5,1.2-0.3c0.1,0,6,2.3,10.8,1.8c0.6,0,1.1,0.4,1.2,1C176.7,156.5,176.3,157,175.7,157z M186,157.1
		c-0.2,0.2-0.5,0.3-0.7,0.3c-0.3,0-0.6-0.1-0.8-0.3c-0.4-0.4-0.4-1.1,0-1.5c9.4-9,7.8-22.3,7.8-22.4c-0.1-0.6,0.3-1.1,0.9-1.2
		c0.6-0.1,1.1,0.3,1.2,0.9S196.1,147.3,186,157.1z M193.1,125.3c-4.8,7.1-15.9,10.6-23.6,7.7c-11.8-4.5-21.6-3.3-25.6,3.3
		c-3.8,6.4-12.7,8.1-15.5,8.4c-0.4,2.4-2.6,8.9-12.5,11.4c-1.9,0.5-3.7,0.7-5.4,0.7c-8.7,0-14.2-5.4-14.5-5.7
		c-0.4-0.4-0.4-1.1,0-1.5s1.1-0.4,1.5,0c0.3,0.3,7.3,7.1,17.9,4.4c10.4-2.6,11-10.3,11-10.3c0-0.5,0.4-1,1-1c0.1,0,10.8-1,14.8-7.5
		c4.5-7.5,15.3-9.2,28.2-4.2c6.8,2.6,16.8-0.7,21.1-6.9c3.1-4.5,2.4-9.7-2-14.5c-0.4-0.4-0.4-1.1,0.1-1.5c0.4-0.4,1.1-0.4,1.5,0.1
		C197.9,115.8,195.3,122.1,193.1,125.3z M189.6,77.9c-2.9,0.8-4.1,3.1-4.1,3.1c-0.3,0.5-0.9,0.7-1.4,0.5c-0.5-0.3-0.7-0.9-0.5-1.4
		c0.1-0.1,1.6-3.2,5.4-4.2c3.5-0.9,7.5,0.2,12.1,3.3c11,7.5,16.4,5.6,16.5,5.6c0.5-0.2,1.1,0,1.4,0.6c0.2,0.5,0,1.1-0.6,1.4
		c-0.1,0-1,0.4-2.7,0.4c-2.9,0-8.1-1-15.7-6.2C195.9,78.2,192.4,77.2,189.6,77.9z M228,90.2c-2.9,14-15.6,19.1-19.5,20.3
		c0,2.9,0.5,6.1,1.7,9.3c0.2,0.5,0,1.1-0.6,1.4c-0.1,0-0.3,0.1-0.4,0.1c-0.4,0-0.8-0.2-1-0.7c-1.4-3.4-1.8-6.9-1.9-10
		c-0.1-0.1-0.2-0.3-0.3-0.5c-0.1-0.4,0-0.8,0.3-1c0.1-5,1.3-8.7,1.4-9c0.2-0.6,0.8-0.9,1.3-0.7c0.6,0.2,0.8,0.8,0.7,1.3
		c0,0.1-1,3.2-1.2,7.6c4.2-1.5,14.8-6.3,17.3-18.5c1.7-8.4-1.1-14.8-3.8-18.6c-3.5-5-8.9-8.6-13.8-9.4c-0.4-0.1-0.8-0.4-0.9-0.8
		s0.1-0.9,0.4-1.1c0.1,0,6-4.2,8.6-9.1c0.3-0.5,0.9-0.7,1.4-0.4s0.7,0.9,0.4,1.4c-2,3.6-5.3,6.7-7.4,8.4c4.8,1.4,9.6,5,12.9,9.7
		C226.8,74.1,229.9,81,228,90.2z M239.2,97.7c-0.2,0.4-0.6,0.6-1,0.6c-0.1,0-0.3,0-0.5-0.1c-0.5-0.3-0.7-0.9-0.5-1.4
		c0.1-0.2,1.3-2.8,4.5-5.3c5-17.6-3-25.7-3.1-25.8c-0.4-0.4-0.4-1.1,0-1.5s1.1-0.4,1.5,0c0.3,0.3,8.3,8.3,4.3,25.4
		c1-0.6,2.1-1.1,3.3-1.6c0.5-0.2,1.2,0.1,1.4,0.6c0.2,0.5-0.1,1.1-0.6,1.4c-2.1,0.8-3.8,1.9-5.2,3C240.4,95.3,239.3,97.7,239.2,97.7
		z"/>
	<path class="st0" d="M61.9,111.6c-1.8-3.2-4.7-11.1,0.7-24C68.4,73.9,81.1,70.1,85,69.2c2-3.9,9.6-17.9,21.6-20.2
		c-1-1.7-3.9-5.5-10.4-7c-0.6-0.1-0.9-0.7-0.8-1.3s0.7-0.9,1.3-0.8c6.4,1.5,9.7,5.1,11.2,7.2c2.7-4.8,9.3-14,21.1-14.5
		c0.9-2.9,3.6-9,10.8-15.5c5-4.5,11-7.1,16.8-8.4c-0.1-0.1-0.2-0.2-0.3-0.3c-0.1-0.1-7.6-8.1-16-8.1c-1.4,0-2.8,0.2-4.2,0.7
		c-0.4,0.1-0.8,0.3-1.1,0.4c-0.1,0.3-0.4,0.5-0.7,0.5c-0.2,0-18.4,4.4-27.2,18.7c1.9,0.7,3.8,1.9,5.6,3.8c0.4,0.4,0.4,1.1-0.1,1.5
		c-0.2,0.2-0.5,0.3-0.7,0.3c-0.3,0-0.6-0.1-0.8-0.3c-1.7-1.8-3.6-2.9-5.4-3.5c-0.1,0-0.2,0.1-0.3,0.1c-0.2,0-0.3,0-0.5-0.1
		c-0.1-0.1-0.2-0.1-0.3-0.3c-4.2-1-7.9,0.2-8.1,0.3c-0.6,0.2-1.2-0.1-1.4-0.6c-0.2-0.5,0.1-1.2,0.6-1.4c0.3-0.1,4.4-1.5,9.3-0.4
		c3.9-6.5,9.5-11.1,14.7-14.2c-3.5,0.6-7.2,0.8-11.8,0.8c-1.4,0-2.9,0-4.5-0.1h-0.7c-10.3,0-14.1,5.8-14.3,6.1
		c-0.9,1.5-2.8,2.3-4.5,2c0,0-3.3-0.7-7.8-0.7c-6.6,0-15.7,1.4-21.3,8.1c-9.1,10.8-6.3,17.8-6.1,18.1c0.4,1,0.5,2.2,0.1,3.2
		c5.5,1.3,12.6,4.1,17.8,10.3c0.4,0.4,0.3,1.1-0.1,1.5c-0.2,0.2-0.4,0.3-0.7,0.3c-0.3,0-0.6-0.1-0.8-0.4c-5.1-6-12.3-8.6-17.6-9.7
		c-0.6,0.5-1.2,0.8-1.9,0.9c-0.1,0-15.3,2.6-19.3,14.5c-4.3,12.7-4,17.2-4,17.3c0.2,1.1-0.1,2.2-0.8,3.1c1.8,0.2,3.6,0.7,5,1.7
		c1-1,2.3-2,4-2.8c0.5-0.2,1.2,0,1.4,0.5c0.3,0.5,0,1.2-0.5,1.4c-6.4,3.1-5.1,7.4-5.1,7.4c0.2,0.6-0.1,1.1-0.7,1.3
		c-0.1,0-0.2,0-0.3,0c-0.4,0-0.9-0.3-1-0.7c0,0-0.8-2.6,0.9-5.5c-2.5-1.9-7.9-1.5-9.8-1.1c-0.1,0-0.2,0-0.3,0
		c-2.4,1-5.1,3.3-5.4,8.8c1.2,4.4,3.4,9.7,7.5,13.4c0.4,0.4,0.5,1.1,0.1,1.5c-0.2,0.2-0.5,0.4-0.8,0.4s-0.5-0.1-0.7-0.3
		c-3.3-2.9-5.5-6.7-6.9-10.4C7.3,99.5-3.4,119.9,3.4,133c6.1,11.7,15.8,12.6,18.7,12.6l0,0c0.3,0,0.5,0,0.5,0c0.6,0,1.1,0,1.6,0.2
		c3.7-2.8,7.5-8.3,6.2-18.7c-3.6-1.7-5-4.9-5.1-4.9c-0.2-0.6,0-1.2,0.6-1.4s1.2,0,1.4,0.5c0.1,0.2,1.3,2.8,4.4,4.1c0,0,0,0,0.1,0
		c1.6,0.6,3.8,0.9,6.5,0.3c0.6-0.1,1.1,0.2,1.3,0.8c0.1,0.6-0.2,1.1-0.8,1.3c-1.3,0.3-2.4,0.4-3.5,0.4c-1,0-1.8-0.1-2.6-0.3
		c1,10.1-2.7,15.8-6.5,19.1c0.5,0.5,0.9,1.2,1.1,2c0.1,0.5,1.4,5.4,6.8,6.3c1.1,0.2,2.3,0.3,3.6,0.3c6.4,0,13-2.2,13-2.2
		c0.6-0.2,1.2-0.3,1.7-0.2C49.2,142.4,48.4,126.7,61.9,111.6z M35.6,104.1c-5.3,4.1-3.3,10.6-3.2,10.8c0.2,0.6-0.1,1.2-0.7,1.4
		c-0.1,0-0.2,0-0.3,0c-0.4,0-0.9-0.3-1-0.7c0-0.1-2.6-8.2,3.9-13.2c0.5-0.4,1.1-0.3,1.5,0.2C36.1,103.1,36,103.8,35.6,104.1z
		 M62.3,33.9c-0.2,0.3-0.5,0.4-0.8,0.4c-0.2,0-0.4-0.1-0.7-0.2c-0.4-0.4-0.5-1-0.2-1.5c0.1-0.2,2.5-3.2,6.4-3.6
		c0.7-2.1,3.1-8,9.7-10.2c0.6-0.2,1.1,0.1,1.3,0.7c0.2,0.6-0.1,1.1-0.7,1.3c-6.8,2.3-8.5,9.4-8.5,9.5c-0.1,0.5-0.5,0.8-1,0.8
		C64.5,31.1,62.3,33.9,62.3,33.9z M45.5,96.6c0.2,0.6-0.1,1.2-0.7,1.4c-0.1,0-0.2,0.1-0.3,0.1c-0.4,0-0.8-0.3-1-0.7
		c-0.1-0.2-5.4-16.5,10-26.3C68.4,61.5,74.9,56.4,74.2,48c-0.5-6.2,1.7-12,5.6-14.9c2.6-1.9,5.7-2.3,9-1c0.5,0.2,0.8,0.9,0.6,1.4
		c-0.2,0.6-0.8,0.8-1.4,0.6c-2.5-1-4.9-0.7-6.9,0.8c-3.2,2.4-5.1,7.6-4.7,13c0.8,10.1-7.3,15.8-21.7,25C40.6,81.7,45.3,96,45.5,96.6
		z"/>
</g>
<g>
</g>
<g>
</g>
<g>
</g>
<g>
</g>
<g>
</g>
<g>
</g>
</svg>
